Chapter 3 Data transformation | 2020 U.S. Presidential Election Exploration
…
First, to compare historical popular vote results for republicans on the state level, we cleaned this dataset in following steps:

Select columns we needed. i.e. year, state, party and candidatevotes.

Filter column party. i.e. only contains democrats and republicans.

Add a new column ratio, we define ratio = candidatevotes_xxx/(candidatevotes_democrat+candidatevotes_republican)

Filter column party. i.e. only leave republican.

Check duplicates and fix typos

We then filtered all outliers which involved 3 states:Utah, District of Columbia and Minnesota. After checking data, we know that Republicans have never won D.C. and popular vote shares have always relatively low. So, it is reasonable. However, the share value of Minnesota for Republicans is abnormal as it is equal to 1. It is impossible that all voters chose one party.

## # A tibble: 27 x 4
##     year state                ratio party     
##    <dbl> <chr>                <dbl> <chr>     
##  1  1976 District of Columbia 0.832 democrat  
##  2  1976 District of Columbia 0.168 republican
##  3  1980 District of Columbia 0.848 democrat  
##  4  1980 District of Columbia 0.152 republican
##  5  1980 Utah                 0.780 republican
##  6  1980 Utah                 0.220 democrat  
##  7  1984 District of Columbia 0.862 democrat  
##  8  1984 District of Columbia 0.138 republican
##  9  1988 District of Columbia 0.852 democrat  
## 10  1988 District of Columbia 0.148 republican
## # … with 17 more rows

Going back to the raw data, we noticed that in those years, party name for Dem. is democratic-farmer-labor rather than democrat.

## # A tibble: 30 x 3
##     year party                   candidatevotes
##    <dbl> <chr>                            <dbl>
##  1  2000 democratic-farmer-labor        1168266
##  2  2000 republican                     1109659
##  3  2000 green                           126696
##  4  2000 reform party minnesota           22166
##  5  2000 libertarian                       5282
##  6  2000 constitution party                3272
##  7  2000 reform party                      2294
##  8  2000 socialist workers                 1022
##  9  2000 <NA>                                28
## 10  2004 democratic-farmer-labor        1445014
## # … with 20 more rows
…
